S2CBench_v1.1/uart/uart.vcd
$date
     Dec 03, 2014       11:34:55
$end

$version
              SystemC 2.3.0-ASI --- May 14 2013 20:13:57
$end

$timescale
     1 ps
$end

$scope module SystemC $end
$var wire    1  aaa  clk       $end
$var wire    1  aab  reset       $end
$var wire    1  aac  rx       $end
$var wire    1  aad  t_ack       $end
$var wire    8  aae  t_data [7:0]  $end
$var wire    8  aaf  r_data [7:0]  $end
$var wire    1  aag  r_ack       $end
$var wire    1  aah  tx       $end
$upscope $end
$enddefinitions  $end

$comment
All initial values are dumped below at time 0 sec = 0 timescale units.
$end

$dumpvars
0aaa
1aab
0aac
0aad
b0 aae
b0 aaf
0aag
0aah
$end

#12500
1aaa

#25000
0aaa
0aab
1aac

#37500
1aaa
1aad
b111010 aae

#50000
0aaa

#62500
1aaa
0aad

#75000
0aaa

#87500
1aaa
0aac

#100000
0aaa

#112500
1aaa
1aah

#125000
0aaa

#137500
1aaa
1aac
0aah

#150000
0aaa

#162500
1aaa
0aac
1aah

#175000
0aaa

#187500
1aaa
1aac

#200000
0aaa

#212500
1aaa

#225000
0aaa

#237500
1aaa
0aah

#250000
0aaa

#262500
1aaa
0aac

#275000
0aaa

#287500
1aaa
1aah

#300000
0aaa

#312500
1aaa
1aac
1aad
b1011010 aae

#325000
0aaa

#337500
1aaa
0aad
b111010 aaf
1aag
0aah

#350000
0aaa

#362500
1aaa
0aac

#375000
0aaa

#387500
1aaa
1aah

#400000
0aaa

#412500
1aaa
1aac
0aah

#425000
0aaa

#437500
1aaa
0aac
1aah

#450000
0aaa

#462500
1aaa
1aac

#475000
0aaa

#487500
1aaa
0aah

#500000
0aaa

#512500
1aaa
0aac
1aah

#525000
0aaa

#537500
1aaa
1aac
0aah

#550000
0aaa

#562500
1aaa
0aac
1aah

#575000
0aaa

#587500
1aaa
1aac
1aad
b101101 aae

#600000
0aaa

#612500
1aaa
0aad
b1011010 aaf
0aah

#625000
0aaa

#637500
1aaa
0aac
1aah

#650000
0aaa

#662500
1aaa
1aac
0aah

#675000
0aaa

#687500
1aaa
0aac
1aah

#700000
0aaa

#712500
1aaa
1aac

#725000
0aaa

#737500
1aaa
0aah

#750000
0aaa

#762500
1aaa
0aac
1aah

#775000
0aaa

#787500
1aaa
1aac
0aah

#800000
0aaa

#812500
1aaa
0aac

#825000
0aaa

#837500
1aaa
1aah

#850000
0aaa

#862500
1aaa
1aac
1aad
b1000011 aae

#875000
0aaa

#887500
1aaa
0aad
b101101 aaf
0aah

#900000
0aaa

#912500
1aaa
0aac
1aah

#925000
0aaa

#937500
1aaa
1aac

#950000
0aaa

#962500
1aaa
0aah

#975000
0aaa

#987500
1aaa
0aac

#1000000
0aaa

#1012500
1aaa

#1025000
0aaa

#1037500
1aaa

#1050000
0aaa

#1062500
1aaa
1aah

#1075000
0aaa

#1087500
1aaa
1aac
0aah

#1100000
0aaa

#1112500
1aaa
0aac
1aah

#1125000
0aaa

#1137500
1aaa
1aac
1aad
b1011001 aae

#1150000
0aaa

#1162500
1aaa
0aad
b1000011 aaf
0aah

#1175000
0aaa

#1187500
1aaa
0aac
1aah

#1200000
0aaa

#1212500
1aaa
1aac
0aah

#1225000
0aaa

#1237500
1aaa
0aac

#1250000
0aaa

#1262500
1aaa
1aah

#1275000
0aaa

#1287500
1aaa
1aac

#1300000
0aaa

#1312500
1aaa
0aah

#1325000
0aaa

#1337500
1aaa
0aac
1aah

#1350000
0aaa

#1362500
1aaa
1aac
0aah

#1375000
0aaa

#1387500
1aaa
0aac
1aah

#1400000
0aaa

#1412500
1aaa
1aac
1aad
b11110011 aae

#1425000
0aaa

#1437500
1aaa
0aad
b1011001 aaf
0aah

#1450000
0aaa

#1462500
1aaa
0aac
1aah

#1475000
0aaa

#1487500
1aaa
1aac

#1500000
0aaa

#1512500
1aaa
0aah

#1525000
0aaa

#1537500
1aaa
0aac

#1550000
0aaa

#1562500
1aaa
1aah

#1575000
0aaa

#1587500
1aaa
1aac

#1600000
0aaa

#1612500
1aaa

#1625000
0aaa

#1637500
1aaa

#1650000
0aaa

#1662500
1aaa

#1675000
0aaa

#1687500
1aaa
1aad
b1000011 aae

#1700000
0aaa

#1712500
1aaa
0aad
b11110011 aaf
0aah

#1725000
0aaa

#1737500
1aaa
0aac
1aah

#1750000
0aaa

#1762500
1aaa
1aac

#1775000
0aaa

#1787500
1aaa
0aah

#1800000
0aaa

#1812500
1aaa
0aac

#1825000
0aaa

#1837500
1aaa

#1850000
0aaa

#1862500
1aaa

#1875000
0aaa

#1887500
1aaa
1aah

#1900000
0aaa

#1912500
1aaa
1aac
0aah

#1925000
0aaa

#1937500
1aaa
0aac
1aah

#1950000
0aaa

#1962500
1aaa
1aac
1aad
b1011001 aae

#1975000
0aaa

#1987500
1aaa
0aad
b1000011 aaf
0aah

#2000000
0aaa

#2012500
1aaa
0aac
1aah

#2025000
0aaa

#2037500
1aaa
1aac
0aah

#2050000
0aaa

#2062500
1aaa
0aac

#2075000
0aaa

#2087500
1aaa
1aah

#2100000
0aaa

#2112500
1aaa
1aac

#2125000
0aaa

#2137500
1aaa
0aah

#2150000
0aaa

#2162500
1aaa
0aac
1aah

#2175000
0aaa

#2187500
1aaa
1aac
0aah

#2200000
0aaa

#2212500
1aaa
0aac
1aah

#2225000
0aaa

#2237500
1aaa
1aac

#2250000
0aaa

#2262500
1aaa
b1011001 aaf

